200 
1223 2575 
1134 2590 
979 2641 
1327 2404 
1218 2435 
908 2553 
1075 2440 
1096 2402 
846 2475 
817 2447 
1406 2207 
1186 2255 
1097 2247 
927 2253 
729 2251 
994 2162 
999 2133 
1172 2086 
906 2072 
944 2039 
955 2004 
757 1968 
1032 1948 
1139 1923 
874 1860 
716 1794 
701 1746 
1125 1805 
1154 1788 
1479 1851 
1010 1671 
769 1540 
902 1544 
1071 1584 
497 1266 
1201 1582 
1336 1626 
1151 1483 
892 1273 
887 1221 
1153 1362 
1278 1420 
1384 1478 
1018 1111 
1427 1452 
1526 1515 
947 861 
1386 1288 
1577 1471 
1149 866 
1353 1077 
1667 1492 
1470 1147 
1456 1065 
1424 938 
1495 988 
1789 1533 
1693 1262 
1621 988 
1670 1016 
1697 976 
1803 1256 
1757 936 
1858 1253 
1850 1044 
1856 867 
1893 857 
1916 714 
1966 783 
2003 979 
2027 1197 
2056 1141 
2088 1051 
2148 777 
2165 907 
2247 599 
2185 1134 
2296 801 
2268 1035 
2253 1188 
2323 1059 
2333 1109 
2330 1191 
2379 1159 
2553 877 
2530 1018 
2312 1468 
2582 1068 
2671 986 
2887 747 
2702 1066 
2465 1427 
2743 1119 
2708 1217 
2739 1238 
2676 1342 
2704 1359 
2890 1230 
2807 1343 
2791 1401 
2868 1379 
2746 1504 
2612 1626 
2826 1532 
3086 1420 
3354 1325 
3107 1495 
2926 1611 
2987 1623 
2764 1739 
2907 1724 
3062 1706 
2769 1817 
2875 1816 
2753 1869 
3025 1848 
2760 1917 
2490 1967 
2759 1970 
3163 1985 
3142 2026 
2986 2049 
3069 2081 
3484 2147 
3124 2142 
3022 2161 
3040 2203 
3441 2334 
2958 2252 
2801 2242 
2899 2299 
2894 2331 
2689 2286 
2924 2410 
2742 2354 
2604 2313 
3044 2585 
2794 2478 
2751 2488 
3103 2773 
2516 2390 
2984 2792 
3085 2936 
2745 2689 
2585 2570 
2634 2663 
2566 2630 
2859 3009 
2484 2608 
2514 2683 
2714 3020 
2652 3006 
2452 2745 
2459 2801 
2567 3060 
2392 2799 
2446 2991 
2368 2889 
2396 3039 
2282 2802 
2303 2937 
2308 3059 
2190 2714 
2204 2870 
2213 3076 
2109 2634 
2179 3325 
2111 3024 
2061 2715 
2031 2620 
2012 2949 
1978 3005 
1938 3102 
1925 2904 
1867 3149 
1909 2641 
1874 2728 
1763 3114 
1815 2770 
1677 3138 
1673 3047 
1701 2851 
1595 3043 
1473 3254 
1624 2825 
1630 2753 
1523 2903 
1537 2810 
1382 2990 
1371 2945 
1268 3037 
1480 2689 
1264 2904 
1222 2892 
1514 2525 
1012 2995 
1444 2538 
1191 2737 
1128 2739 
1385 2491 
