400
815 255 
906 224 
844 282 
891 318 
905 336 
913 348 
905 270 
980 208 
983 206 
965 387 
962 430 
950 426 
904 415 
869 397 
831 448 
796 446 
792 471 
800 461 
849 473 
891 465 
876 490 
853 514 
900 495 
906 484 
957 462 
923 490 
929 522 
969 488 
996 424 
984 668 
979 597 
982 654 
958 602 
920 557 
856 583 
841 545 
821 528 
814 544 
823 576 
776 581 
779 530 
701 485 
679 467 
649 498 
654 540 
644 552 
583 598 
648 575 
676 531 
751 582 
758 607 
709 607 
766 636 
695 683 
779 673 
805 675 
917 628 
958 656 
952 693 
913 704 
882 723 
817 769 
824 772 
818 782 
869 769 
916 785 
887 746 
929 769 
943 741 
999 798 
973 995 
988 842 
960 842 
913 844 
934 861 
942 879 
885 854 
818 845 
818 897 
859 905 
911 949 
956 989 
929 984 
779 999 
795 945 
754 973 
757 933 
696 964 
595 948 
654 934 
732 901 
780 891 
801 860 
780 851 
803 777 
718 798 
730 859 
699 818 
666 890 
622 884 
547 940 
521 939 
550 862 
602 755 
655 770 
698 734 
645 740 
689 688 
680 662 
639 695 
626 730 
527 696 
491 679 
494 707 
490 709 
508 729 
547 739 
531 769 
550 764 
539 799 
490 781 
489 786 
509 863 
506 870 
487 928 
482 867 
451 845 
430 853 
417 826 
431 790 
440 773 
400 755 
451 736 
392 738 
404 697 
385 685 
396 648 
368 661 
382 679 
335 663 
372 730 
334 764 
292 746 
286 772 
269 780 
252 789 
340 833 
424 931 
428 971 
353 990 
350 994 
242 930 
145 990 
171 943 
183 912 
171 917 
158 916 
107 988 
81 982 
137 898 
185 874 
136 834 
184 790 
240 749 
191 735 
241 723 
244 721 
226 695 
198 707 
189 666 
127 668 
156 749 
133 761 
142 770 
98 781 
132 815 
123 826 
107 822 
84 809 
60 865 
60 895 
60 905 
29 934 
5 888 
43 801 
94 784 
32 766 
34 758 
86 738 
29 736 
12 741 
34 644 
33 684 
36 722 
76 696 
108 642 
119 662 
111 640 
117 621 
139 646 
173 631 
184 626 
230 635 
254 647 
258 639 
235 613 
255 541 
301 550 
276 459 
228 536 
224 613 
195 539 
167 603 
96 583 
106 526 
38 559 
83 505 
130 485 
149 479 
171 499 
152 442 
146 439 
91 452 
76 407 
53 397 
69 433 
15 480 
15 48 
23 237 
46 287 
78 270 
42 242 
106 273 
150 307 
84 395 
163 350 
162 348 
182 328 
226 369 
161 405 
258 417 
260 377 
290 368 
281 316 
240 319 
232 301 
169 228 
187 209 
197 219 
263 243 
237 178 
277 189 
301 189 
311 124 
306 121 
289 109 
262 177 
222 166 
251 106 
208 147 
240 104 
198 100 
190 117 
168 184 
31 178 
50 90 
68 134 
54 94 
97 91 
71 54 
99 54 
111 55 
154 59 
128 89 
179 105 
178 73 
166 44 
97 13 
367 25 
262 63 
319 52 
313 91 
391 90 
369 148 
418 105 
423 112 
454 62 
432 10 
447 17 
547 7 
471 43 
500 57 
473 64 
457 125 
443 197 
408 187 
380 192 
402 200 
409 206 
376 235 
446 236 
471 213 
489 296 
432 298 
339 288 
351 362 
422 322 
461 329 
423 338 
352 405 
423 430 
459 399 
485 424 
498 416 
522 442 
511 484 
577 468 
569 393 
538 331 
529 262 
594 294 
585 366 
590 366 
624 333 
599 292 
628 294 
585 256 
584 229 
550 193 
580 167 
568 139 
561 132 
513 155 
500 134 
527 109 
519 102 
518 92 
531 110 
547 31 
603 106 
616 110 
611 37 
575 1 
667 51 
826 20 
971 1 
944 8 
959 36 
983 128 
963 134 
959 119 
939 50 
825 46 
831 81 
812 32 
738 62 
682 71 
669 110 
687 83 
722 93 
695 126 
646 119 
622 123 
610 176 
587 205 
617 206 
618 209 
655 243 
656 176 
743 192 
711 142 
721 118 
794 150 
875 130 
903 112 
945 136 
934 153 
880 152 
818 197 
800 216 
795 209 
745 247 
706 269 
699 265 
715 288 
713 300 
748 359 
744 360 
680 331 
649 332 
657 338 
632 344 
638 423 
679 341 
730 388 
700 432 
755 450 
775 391 
800 297 
820 266 
